{"code":200,"meta":{"pagination":{"total":1417,"pages":71,"page":1,"limit":20}},"data":[{"id":1,"name":"Sathrya Selvin","email":"ashlesh_khatri_pres@jast.name","gender":"Male","status":"Active","created_at":"2021-01-18T03:50:03.413+05:30","updated_at":"2021-01-18T16:46:36.046+05:30"},{"id":4,"name":"Mrs. Tara Varma","email":"varma_mrs_tara@kerluke-grady.com","gender":"Male","status":"Inactive","created_at":"2021-01-18T03:50:03.503+05:30","updated_at":"2021-01-18T03:50:03.503+05:30"},{"id":5,"name":"Jagadish Achari","email":"achari_jagadish@runte.name","gender":"Male","status":"Inactive","created_at":"2021-01-18T03:50:03.510+05:30","updated_at":"2021-01-18T03:50:03.510+05:30"},{"id":6,"name":"Devani Trivedi","email":"trivedi_devani@mcglynn-renner.co","gender":"Female","status":"Active","created_at":"2021-01-18T03:50:03.518+05:30","updated_at":"2021-01-18T03:50:03.518+05:30"},{"id":7,"name":"Pranay Bharadwaj","email":"pranay_bharadwaj@metz.name","gender":"Female","status":"Active","created_at":"2021-01-18T03:50:03.564+05:30","updated_at":"2021-01-18T03:50:03.564+05:30"},{"id":8,"name":"Marut Singh","email":"singh_marut@casper.name","gender":"Male","status":"Inactive","created_at":"2021-01-18T03:50:03.587+05:30","updated_at":"2021-01-18T03:50:03.587+05:30"},{"id":9,"name":"Chanda Tagore","email":"chanda_tagore@hahn.io","gender":"Female","status":"Active","created_at":"2021-01-18T03:50:03.603+05:30","updated_at":"2021-01-18T03:50:03.603+05:30"},{"id":10,"name":"Dharmaketu Ahluwalia","email":"ahluwalia_dharmaketu@berge.com","gender":"Male","status":"Inactive","created_at":"2021-01-18T03:50:03.632+05:30","updated_at":"2021-01-18T03:50:03.632+05:30"},{"id":11,"name":"Rep. Dwaipayan Adiga","email":"dwaipayan_adiga_rep@macgyver.org","gender":"Male","status":"Inactive","created_at":"2021-01-18T03:50:03.643+05:30","updated_at":"2021-01-18T03:50:03.643+05:30"},{"id":12,"name":"Mrs. Aanjaneya Johar","email":"johar_aanjaneya_mrs@emard.com","gender":"Female","status":"Inactive","created_at":"2021-01-18T03:50:03.648+05:30","updated_at":"2021-01-18T03:50:03.648+05:30"},{"id":13,"name":"Kanishka Saini","email":"saini_kanishka@hackett.name","gender":"Female","status":"Active","created_at":"2021-01-18T03:50:03.667+05:30","updated_at":"2021-01-18T03:50:03.667+05:30"},{"id":14,"name":"Brahmanandam Prajapat","email":"prajapat_brahmanandam@hintz.info","gender":"Female","status":"Active","created_at":"2021-01-18T03:50:03.678+05:30","updated_at":"2021-01-18T03:50:03.678+05:30"},{"id":15,"name":"Fr. Chaturbhuj Somayaji","email":"somayaji_chaturbhuj_fr@pollich.io","gender":"Female","status":"Inactive","created_at":"2021-01-18T03:50:03.687+05:30","updated_at":"2021-01-18T03:50:03.687+05:30"},{"id":16,"name":"Charuvrat Prajapat CPA","email":"cpa_charuvrat_prajapat@crooks-lueilwitz.org","gender":"Female","status":"Inactive","created_at":"2021-01-18T03:50:03.715+05:30","updated_at":"2021-01-18T03:50:03.715+05:30"},{"id":27,"name":"Anasooya Pilla","email":"anasooya_pilla@orn.io","gender":"Male","status":"Inactive","created_at":"2021-01-18T03:50:03.958+05:30","updated_at":"2021-01-18T03:50:03.958+05:30"},{"id":28,"name":"Anwesha Khatri Jr.","email":"anwesha_jr_khatri@predovic-stehr.org","gender":"Male","status":"Inactive","created_at":"2021-01-18T03:50:03.968+05:30","updated_at":"2021-01-18T03:50:03.968+05:30"},{"id":29,"name":"Rep. Kalyani Kakkar","email":"rep_kalyani_kakkar@feest.net","gender":"Male","status":"Active","created_at":"2021-01-18T03:50:03.989+05:30","updated_at":"2021-01-18T03:50:03.989+05:30"},{"id":30,"name":"Durgeshwari Butt","email":"butt_durgeshwari@toy.name","gender":"Male","status":"Inactive","created_at":"2021-01-18T03:50:03.997+05:30","updated_at":"2021-01-18T03:50:03.997+05:30"},{"id":31,"name":"Tara Tagore","email":"tara_tagore@langworth.net","gender":"Male","status":"Inactive","created_at":"2021-01-18T03:50:04.007+05:30","updated_at":"2021-01-18T03:50:04.007+05:30"},{"id":32,"name":"Aayushman Ganaka","email":"aayushman_ganaka@sporer.com","gender":"Female","status":"Active","created_at":"2021-01-18T03:50:04.019+05:30","updated_at":"2021-01-18T03:50:04.019+05:30"}]}