{"code":200,"meta":{"pagination":{"total":1417,"pages":71,"page":3,"limit":20}},"data":[{"id":54,"name":"Amrita Kaur","email":"kaur_amrita@beer-abbott.io","gender":"Male","status":"Inactive","created_at":"2021-01-18T03:50:04.371+05:30","updated_at":"2021-01-18T03:50:04.371+05:30"},{"id":55,"name":"Dhruv Joshi LLD","email":"dhruv_joshi_lld@harber-brekke.org","gender":"Female","status":"Active","created_at":"2021-01-18T03:50:04.381+05:30","updated_at":"2021-01-18T03:50:04.381+05:30"},{"id":56,"name":"Mr. Aadidev Chattopadhyay","email":"chattopadhyay_aadidev_mr@heathcote.net","gender":"Female","status":"Active","created_at":"2021-01-18T03:50:04.402+05:30","updated_at":"2021-01-18T03:50:04.402+05:30"},{"id":57,"name":"Malti Guneta V","email":"guneta_malti_v@dubuque.io","gender":"Male","status":"Active","created_at":"2021-01-18T03:50:04.418+05:30","updated_at":"2021-01-18T03:50:04.418+05:30"},{"id":58,"name":"Mrs. Krishnadasa Sethi","email":"sethi_krishnadasa_mrs@koelpin.co","gender":"Female","status":"Inactive","created_at":"2021-01-18T03:50:04.445+05:30","updated_at":"2021-01-18T03:50:04.445+05:30"},{"id":59,"name":"Sanka Rana","email":"sanka_rana@schamberger.net","gender":"Male","status":"Inactive","created_at":"2021-01-18T03:50:04.463+05:30","updated_at":"2021-01-18T03:50:04.463+05:30"},{"id":60,"name":"Chaaruchandra Joshi","email":"chaaruchandra_joshi@roob-herzog.io","gender":"Female","status":"Inactive","created_at":"2021-01-18T03:50:04.492+05:30","updated_at":"2021-01-18T03:50:04.492+05:30"},{"id":61,"name":"Divjot Varman","email":"varman_divjot@bergstrom.name","gender":"Female","status":"Inactive","created_at":"2021-01-18T03:50:04.502+05:30","updated_at":"2021-01-18T03:50:04.502+05:30"},{"id":62,"name":"Kin Shukla","email":"kin_shukla@pollich.net","gender":"Male","status":"Inactive","created_at":"2021-01-18T03:50:04.505+05:30","updated_at":"2021-01-18T03:50:04.505+05:30"},{"id":63,"name":"Msgr. Hiranya Prajapat","email":"prajapat_hiranya_msgr@baumbach.org","gender":"Male","status":"Active","created_at":"2021-01-18T03:50:04.522+05:30","updated_at":"2021-01-18T03:50:04.522+05:30"},{"id":64,"name":"Pres. Ekaaksh Patel","email":"patel_ekaaksh_pres@smitham-mitchell.org","gender":"Female","status":"Inactive","created_at":"2021-01-18T03:50:04.534+05:30","updated_at":"2021-01-18T03:50:04.534+05:30"},{"id":65,"name":"Fr. Bhuvaneshwar Iyer","email":"fr_iyer_bhuvaneshwar@lebsack.io","gender":"Female","status":"Active","created_at":"2021-01-18T03:50:04.563+05:30","updated_at":"2021-01-18T03:50:04.563+05:30"},{"id":66,"name":"Kashyap Dutta","email":"kashyap_dutta@mueller.net","gender":"Male","status":"Active","created_at":"2021-01-18T03:50:04.592+05:30","updated_at":"2021-01-18T03:50:04.592+05:30"},{"id":67,"name":"Daiwik Patel","email":"daiwik_patel@bins-schumm.co","gender":"Female","status":"Active","created_at":"2021-01-18T03:50:04.617+05:30","updated_at":"2021-01-18T03:50:04.617+05:30"},{"id":68,"name":"Achalesvara Iyer","email":"achalesvara_iyer@vonrueden.name","gender":"Male","status":"Inactive","created_at":"2021-01-18T03:50:04.637+05:30","updated_at":"2021-01-18T03:50:04.637+05:30"},{"id":69,"name":"Anunay Patil","email":"anunay_patil@johnson-schamberger.org","gender":"Female","status":"Active","created_at":"2021-01-18T03:50:04.669+05:30","updated_at":"2021-01-18T03:50:04.669+05:30"},{"id":70,"name":"Hiranmay Abbott","email":"hiranmay_abbott@bergstrom.name","gender":"Female","status":"Active","created_at":"2021-01-18T03:50:04.685+05:30","updated_at":"2021-01-18T03:50:04.685+05:30"},{"id":71,"name":"Amb. Amaresh Marar","email":"amb_amaresh_marar@muller-strosin.biz","gender":"Female","status":"Inactive","created_at":"2021-01-18T03:50:04.701+05:30","updated_at":"2021-01-18T03:50:04.701+05:30"},{"id":72,"name":"Charak Chattopadhyay","email":"charak_chattopadhyay@osinski-treutel.io","gender":"Male","status":"Active","created_at":"2021-01-18T03:50:04.719+05:30","updated_at":"2021-01-18T03:50:04.719+05:30"},{"id":73,"name":"Gayatri Mahajan","email":"gayatri_mahajan@oreilly.com","gender":"Male","status":"Inactive","created_at":"2021-01-18T03:50:04.727+05:30","updated_at":"2021-01-18T03:50:04.727+05:30"}]}