{"code":200,"meta":{"pagination":{"total":1417,"pages":71,"page":2,"limit":20}},"data":[{"id":33,"name":"Mrs. Anasooya Iyengar","email":"anasooya_iyengar_mrs@gulgowski.net","gender":"Female","status":"Active","created_at":"2021-01-18T03:50:04.032+05:30","updated_at":"2021-01-18T03:50:04.032+05:30"},{"id":34,"name":"Bhardwaj Banerjee","email":"bhardwaj_banerjee@ondricka.info","gender":"Male","status":"Inactive","created_at":"2021-01-18T03:50:04.042+05:30","updated_at":"2021-01-18T03:50:04.042+05:30"},{"id":35,"name":"Shrishti Patel","email":"shrishti_patel@spinka.com","gender":"Female","status":"Active","created_at":"2021-01-18T03:50:04.059+05:30","updated_at":"2021-01-18T03:50:04.059+05:30"},{"id":36,"name":"Anilaabh Ganaka VM","email":"ganaka_anilaabh_vm@heidenreich.com","gender":"Female","status":"Inactive","created_at":"2021-01-18T03:50:04.078+05:30","updated_at":"2021-01-18T03:50:04.078+05:30"},{"id":37,"name":"Vimala Shah","email":"vimala_shah@herman.name","gender":"Male","status":"Active","created_at":"2021-01-18T03:50:04.087+05:30","updated_at":"2021-01-18T03:50:04.087+05:30"},{"id":38,"name":"Pres. Tara Mahajan","email":"mahajan_pres_tara@stark.co","gender":"Male","status":"Inactive","created_at":"2021-01-18T03:50:04.095+05:30","updated_at":"2021-01-18T03:50:04.095+05:30"},{"id":39,"name":"Ms. Smita Somayaji","email":"somayaji_ms_smita@adams.name","gender":"Male","status":"Inactive","created_at":"2021-01-18T03:50:04.110+05:30","updated_at":"2021-01-18T03:50:04.110+05:30"},{"id":40,"name":"Vicente Murazik","email":"Ford.Jerde40@yahoo.com","gender":"Female","status":"Active","created_at":"2021-01-18T03:50:04.117+05:30","updated_at":"2021-01-18T08:37:11.019+05:30"},{"id":41,"name":"Deepesh Adiga","email":"deepesh_adiga@leuschke.name","gender":"Female","status":"Active","created_at":"2021-01-18T03:50:04.139+05:30","updated_at":"2021-01-18T03:50:04.139+05:30"},{"id":42,"name":"Chitramala Kakkar Jr.","email":"jr_kakkar_chitramala@ullrich.info","gender":"Female","status":"Active","created_at":"2021-01-18T03:50:04.161+05:30","updated_at":"2021-01-18T03:50:04.161+05:30"},{"id":43,"name":"Kannen Pilla CPA","email":"pilla_kannen_cpa@mohr.org","gender":"Female","status":"Active","created_at":"2021-01-18T03:50:04.164+05:30","updated_at":"2021-01-18T03:50:04.164+05:30"},{"id":44,"name":"Vinay Dubashi","email":"dubashi_vinay@quigley.io","gender":"Female","status":"Inactive","created_at":"2021-01-18T03:50:04.196+05:30","updated_at":"2021-01-18T03:50:04.196+05:30"},{"id":45,"name":"Arnesh Saini I","email":"saini_arnesh_i@sawayn.net","gender":"Female","status":"Active","created_at":"2021-01-18T03:50:04.199+05:30","updated_at":"2021-01-18T03:50:04.199+05:30"},{"id":46,"name":"Kanak Banerjee","email":"kanak_banerjee@hoppe.info","gender":"Male","status":"Inactive","created_at":"2021-01-18T03:50:04.231+05:30","updated_at":"2021-01-18T03:50:04.231+05:30"},{"id":47,"name":"Sen. Swarnalata Achari","email":"achari_sen_swarnalata@mccullough.name","gender":"Male","status":"Active","created_at":"2021-01-18T03:50:04.245+05:30","updated_at":"2021-01-18T03:50:04.245+05:30"},{"id":48,"name":"Aaratrika Kaul","email":"kaul_aaratrika@muller.com","gender":"Female","status":"Inactive","created_at":"2021-01-18T03:50:04.251+05:30","updated_at":"2021-01-18T03:50:04.251+05:30"},{"id":49,"name":"Jitendra Dubashi","email":"dubashi_jitendra@kerluke.net","gender":"Male","status":"Inactive","created_at":"2021-01-18T03:50:04.261+05:30","updated_at":"2021-01-18T03:50:04.261+05:30"},{"id":50,"name":"Chandrabhaga Dhawan","email":"chandrabhaga_dhawan@veum.io","gender":"Female","status":"Inactive","created_at":"2021-01-18T03:50:04.292+05:30","updated_at":"2021-01-18T03:50:04.292+05:30"},{"id":51,"name":"Vidur Iyengar CPA","email":"cpa_vidur_iyengar@bergnaum.biz","gender":"Female","status":"Active","created_at":"2021-01-18T03:50:04.326+05:30","updated_at":"2021-01-18T03:50:04.326+05:30"},{"id":53,"name":"Bhanumati Abbott","email":"abbott_bhanumati@steuber.net","gender":"Male","status":"Active","created_at":"2021-01-18T03:50:04.347+05:30","updated_at":"2021-01-18T03:50:04.347+05:30"}]}